<svg xmlns="http://www.w3.org/2000/svg" xmlns:xlink="http://www.w3.org/1999/xlink" version="1.1" id="Capa_1" x="0px" y="0px" viewBox="0 0 46.734 46.734" style="enable-background:new 0 0 46.734 46.734;" xml:space="preserve" width="512px" height="512px" class=""><g><g>
	<path d="M41.346,0H5.388C2.417,0,0,2.417,0,5.388v35.958c0,2.971,2.417,5.388,5.388,5.388h35.958c2.971,0,5.388-2.417,5.388-5.388   V5.388C46.733,2.417,44.316,0,41.346,0z" data-original="#000000" class="active-path" fill="#000000"/>
</g></g> </svg>
